# Blender v2.79 (sub 0) OBJ File: 'pared.blend'
# www.blender.org
mtllib block.mtl
o Plane.001
v -0.000001 10.518610 10.518610
v 0.000001 -10.518610 10.518610
v -0.000001 10.518610 -29.975143
v 0.000001 -10.518610 -29.975143
v 32.220024 10.518610 -64.156387
v 32.220024 -10.518610 -64.156387
v 91.930733 10.518609 -81.504768
v 91.930733 -10.518611 -81.504768
vn 1.0000 0.0000 0.0000
vn 0.7277 0.0000 0.6859
vn 0.2790 0.0000 0.9603
usemtl None
s off
f 1//1 2//1 4//1 3//1
f 3//2 4//2 6//2 5//2
f 5//3 6//3 8//3 7//3
